Metabolic-Calculations-Vignette
…
         isi_stumvoll = map_dbl(ogtt_df, ~calculate_isi_stumvoll(.x$time, .x$glucose, .x$insulin)),
         isi_stumvoll_dem = pmap_dbl(list(ogtt_df, bmi, age), 
                             ~calculate_isi_stumvoll_dem(..1$time, ..1$glucose, ..1$insulin, bmi=..2, age=..3)),
         isi_matsuda = map_dbl(ogtt_df, ~calculate_isi_matsuda(.x$time, .x$glucose, .x$insulin)),
         isi_caumo = map2_dbl(ogtt_df, weight_kg, ~calculate_isi_caumo(.x$time, .x$glucose, .x$insulin, weight=.y)),
         isi_cederholm = map2_dbl(ogtt_df, weight_kg, ~calculate_isi_cederholm(.x$time, .x$glucose, .x$insulin, weight=.y)),
         isi_gutt = map2_dbl(ogtt_df, bmi, ~calculate_isi_gutt(.x$time, .x$glucose, .x$insulin, bmi=.y)),
         isi_ogis = pmap_dbl(list(ogtt_df, height_cm/100, weight_kg), 
                             ~calculate_isi_ogis(..1$time, ..1$glucose, ..1$insulin, height=..2, weight=..3)),
         isi_bigtt =pmap_df(list(ogtt_df, gender.f, bmi), 
                             ~calculate_isi_bigtt(..1$time, ..1$glucose, ..1$insulin, gender=..2, bmi=..3)),
         beta = map_df(ogtt_df, ~calculate_stumvoll_beta(.x$time, .x$glucose, .x$insulin)),
         )
ogtt_isi |> select(id, glucose_tolerance.f, glucose_fasting.f, starts_with("isi_"), beta, )
#> # A tibble: 184 × 12
#>       id glucose_tolerance.f glucose_fasting.f isi_stumvoll isi_stumvoll_dem
#>    <int> <fct>               <fct>                    <dbl>            <dbl>
#>  1     2 NGT                 DM2                    0.0733            0.0366
#>  2     3 NGT                 IFG                    0.0515            0.0345
#>  3     4 NGT                 IFG                    0.0498            0.0218
#>  4     5 NGT                 IFG                   -0.0337           -0.0533
#>  5     6 NGT                 NFG                    0.0619            0.0636
#>  6     7 NGT                 IFG                    0.0719            0.0563
#>  7     8 NGT                 IFG                    0.0334            0.0718
#>  8     9 NGT                 IFG                    0.104             0.0955
#>  9    10 IGT                 DM2                    0.0632            0.0139
#> 10    11 NGT                 DM2                   -0.00379           0.0134
#> # ℹ 174 more rows
#> # ℹ 7 more variables: isi_matsuda <dbl>, isi_caumo <dbl>, isi_cederholm <dbl>,
#> #   isi_gutt <dbl>, isi_ogis <dbl>, isi_bigtt <df[,4]>, beta <tibble[,2]>
…
